\relax 
\@writefile{toc}{\contentsline {section}{List of Significant Contributions}{2}}
\@writefile{toc}{\contentsline {section}{Poster}{2}}
\@writefile{toc}{\contentsline {section}{Executive Summary}{4}}
\@writefile{toc}{\contentsline {section}{List of Figures}{6}}
\citation{DeepLearning}
\citation{ConnectionismHistory}
\citation{DeepLearning}
\citation{AlexNetCar}
\citation{MarsCopter}
\citation{TensorFlowAndroid}
\@writefile{toc}{\contentsline {section}{\numberline {1}Introduction}{7}}
\citation{hinrichsen2005mathematical}
\citation{10.1057/9780230226203.0329}
\@writefile{toc}{\contentsline {section}{\numberline {2}Theory and Background}{8}}
\@writefile{toc}{\contentsline {subsection}{\numberline {2.1}Floating Point Numbers}{8}}
\@writefile{toc}{\contentsline {subsection}{\numberline {2.2}Non Linear Functions}{8}}
\@writefile{toc}{\contentsline {subsection}{\numberline {2.3}Mathematical Optimisation}{8}}
\@writefile{toc}{\contentsline {subsection}{\numberline {2.4}Deep Learning}{8}}
\citation{HandsOn}
\citation{HandsOn}
\@writefile{toc}{\contentsline {subsubsection}{\numberline {2.4.1}Artificial Neural Networks}{9}}
\@writefile{lof}{\contentsline {figure}{\numberline {1}{\ignorespaces A simple network diagram \relax }}{9}}
\providecommand*\caption@xref[2]{\@setref\relax\@undefined{#1}}
\newlabel{basicNetworkLayout}{{1}{9}}
\@writefile{toc}{\contentsline {paragraph}{Layout}{9}}
\@writefile{toc}{\contentsline {paragraph}{Weights}{9}}
\citation{HandsOn}
\citation{backprop}
\citation{backprop}
\@writefile{toc}{\contentsline {paragraph}{Activation Functions}{10}}
\@writefile{lof}{\contentsline {figure}{\numberline {2}{\ignorespaces The shape of different types of activation functions. \relax }}{10}}
\newlabel{ActivationFunctions}{{2}{10}}
\@writefile{toc}{\contentsline {subsubsection}{\numberline {2.4.2}Backpropagation}{10}}
\citation{backprop}
\citation{StochasticNN}
\citation{GeneticNN}
\@writefile{lof}{\contentsline {figure}{\numberline {3}{\ignorespaces An example of back propagation. \relax }}{11}}
\newlabel{backpropagation}{{3}{11}}
\@writefile{toc}{\contentsline {subsubsection}{\numberline {2.4.3}Overfitting}{11}}
\@writefile{toc}{\contentsline {subsubsection}{\numberline {2.4.4}Quantising}{11}}
\@writefile{toc}{\contentsline {subsection}{\numberline {2.5}Programming}{12}}
\@writefile{toc}{\contentsline {subsubsection}{\numberline {2.5.1}CUDA}{12}}
\@writefile{lof}{\contentsline {figure}{\numberline {4}{\ignorespaces The operation flow of CUDA processing. \relax }}{12}}
\newlabel{CUDA-Flowchart}{{4}{12}}
\@writefile{toc}{\contentsline {subsubsection}{\numberline {2.5.2}Torch - Lua}{12}}
\citation{HandsOn}
\citation{HandsOn}
\citation{BinaryNet}
\citation{XNORNet}
\citation{TernaryWeightNetworks}
\@writefile{toc}{\contentsline {subsubsection}{\numberline {2.5.3}TensorFlow - Python}{13}}
\@writefile{toc}{\contentsline {subsection}{\numberline {2.6}Optimisation via Binary and Ternary Quantisation}{13}}
\@writefile{toc}{\contentsline {subsubsection}{\numberline {2.6.1}Current Research}{13}}
\@writefile{toc}{\contentsline {paragraph}{Binary-Net}{13}}
\@writefile{toc}{\contentsline {paragraph}{XNOR-Net}{13}}
\@writefile{toc}{\contentsline {paragraph}{Ternary-Net}{13}}
\citation{HandsOn}
\@writefile{toc}{\contentsline {section}{\numberline {3}Torch Implementation}{14}}
\@writefile{toc}{\contentsline {subsection}{\numberline {3.1}Outline}{14}}
\@writefile{toc}{\contentsline {subsection}{\numberline {3.2}Development and Programming}{14}}
\@writefile{loa}{\contentsline {algorithm}{\numberline {1}{\ignorespaces Ternary Activation Algorithm\relax }}{14}}
\newlabel{ternaryActivation}{{1}{14}}
\@writefile{toc}{\contentsline {subsection}{\numberline {3.3}Challenges and Solutions}{14}}
\citation{AlexNet}
\@writefile{toc}{\contentsline {section}{\numberline {4}TensorFlow Implementation}{15}}
\@writefile{toc}{\contentsline {subsection}{\numberline {4.1}Outline}{15}}
\@writefile{lof}{\contentsline {figure}{\numberline {5}{\ignorespaces An example of the layout of a network in TensorFlow. \relax }}{15}}
\newlabel{networkLayout}{{5}{15}}
\@writefile{toc}{\contentsline {subsection}{\numberline {4.2}Research and Results}{16}}
\@writefile{toc}{\contentsline {subsection}{\numberline {4.3}Improvements and Adaptations}{16}}
\@writefile{toc}{\contentsline {section}{\numberline {5}Results and Analysis}{16}}
\@writefile{toc}{\contentsline {subsection}{\numberline {5.1}Network Error Rates}{16}}
\@writefile{lof}{\contentsline {figure}{\numberline {6}{\ignorespaces Comparison of training errors for optimised and regular networks. \relax }}{17}}
\newlabel{errorTraining}{{6}{17}}
\@writefile{lof}{\contentsline {figure}{\numberline {7}{\ignorespaces Comparison of testing errors for optimised and regular networks. \relax }}{18}}
\newlabel{errorTesting}{{7}{18}}
\@writefile{toc}{\contentsline {subsection}{\numberline {5.2}Network Training and Testing Accuracies}{18}}
\@writefile{toc}{\contentsline {subsubsection}{\numberline {5.2.1}Top-1 Accuracies}{18}}
\@writefile{lof}{\contentsline {figure}{\numberline {8}{\ignorespaces Comparison of Top-1 testing accuracies for optimised and regular networks. \relax }}{19}}
\newlabel{Top1Training}{{8}{19}}
\@writefile{lof}{\contentsline {figure}{\numberline {9}{\ignorespaces Comparison of Top-1 training accuracies for optimised and regular networks. \relax }}{19}}
\newlabel{Top1Testing}{{9}{19}}
\@writefile{toc}{\contentsline {subsubsection}{\numberline {5.2.2}Top-5 Accuracies}{20}}
\@writefile{lof}{\contentsline {figure}{\numberline {10}{\ignorespaces Comparison of Top-5 testing accuracies for optimised and regular networks. \relax }}{20}}
\newlabel{Top5Training}{{10}{20}}
\@writefile{lof}{\contentsline {figure}{\numberline {11}{\ignorespaces Comparison of Top-5 training accuracies for optimised and regular networks. \relax }}{21}}
\newlabel{Top5Testing}{{11}{21}}
\newlabel{fig:standardSigmoid}{{12a}{22}}
\newlabel{sub@fig:standardSigmoid}{{a}{22}}
\newlabel{fig:squishedSigmoid}{{12b}{22}}
\newlabel{sub@fig:squishedSigmoid}{{b}{22}}
\@writefile{lof}{\contentsline {figure}{\numberline {12}{\ignorespaces A comparison of activation functions and their derivatives.\relax }}{22}}
\newlabel{fig:sigmoids}{{12}{22}}
\@writefile{toc}{\contentsline {subsection}{\numberline {5.3}Batch and Filesize Comparisons}{22}}
\@writefile{lof}{\contentsline {figure}{\numberline {13}{\ignorespaces Comparison of batch times for optimised and regular networks. \relax }}{22}}
\newlabel{batch}{{13}{22}}
\@writefile{lof}{\contentsline {figure}{\numberline {14}{\ignorespaces Comparison of file sizes for optimised and regular networks. \relax }}{23}}
\newlabel{filesize}{{14}{23}}
\@writefile{toc}{\contentsline {subsection}{\numberline {5.4}Analysis}{23}}
\citation{IntelChip}
\@writefile{toc}{\contentsline {section}{\numberline {6}Conclusion}{24}}
\bibstyle{plain}
\bibdata{references}
\bibcite{AlexNetCar}{1}
\bibcite{BinaryNet}{2}
\bibcite{10.1057/9780230226203.0329}{3}
\bibcite{DeepLearning}{4}
\bibcite{HandsOn}{5}
\bibcite{hinrichsen2005mathematical}{6}
\bibcite{AlexNet}{7}
\bibcite{MarsCopter}{8}
\bibcite{backprop}{9}
\bibcite{TernaryWeightNetworks}{10}
\bibcite{TensorFlowAndroid}{11}
\bibcite{IntelChip}{12}
\bibcite{ConnectionismHistory}{13}
\bibcite{XNORNet}{14}
\bibcite{GeneticNN}{15}
\bibcite{StochasticNN}{16}
\@writefile{toc}{\contentsline {section}{References}{25}}
